Survive Before Go to Sea~
…
Based on the result above, the most frequent variables are Master, Miss, Mr, and Mrs. Therefore, I will explore the observations with rare titles and check if I could group them into the 4 most frequent titles.

full_data %>%
            filter(!Title %in% c("Master", "Miss", "Mr", "Mrs")) %>%
            select_all()%>%
            arrange(Sex)

## # A tibble: 34 x 12
##    Pclass Name  Sex     Age SibSp Parch Ticket   Fare Cabin Embarked
##    <ord>  <chr> <chr> <dbl> <dbl> <dbl> <chr>   <dbl> <chr> <chr>   
##  1 1st    "Aub~ fema~    24     0     0 PC 17~  69.3  B35   C       
##  2 2nd    "Rey~ fema~    28     0     0 230434  13    <NA>  S       
##  3 1st    "Duf~ fema~    48     1     0 11755   39.6  A16   C       
##  4 1st    "Sag~ fema~    24     0     0 PC 17~  69.3  B35   C       
##  5 1st    "May~ fema~    24     0     0 PC 17~  49.5  C90   C       
##  6 1st    "Rot~ fema~    33     0     0 110152  86.5  B77   S       
##  7 1st    "Lea~ fema~    49     0     0 17465   25.9  D17   S       
##  8 3rd    "O'D~ fema~    NA     0     0 364856   7.75 <NA>  Q       
##  9 1st    "Oli~ fema~    39     0     0 PC 17~ 109.   C105  C       
## 10 1st    "Uru~ male     40     0     0 PC 17~  27.7  <NA>  C       
## # ... with 24 more rows, and 2 more variables: Age_Category <chr>, Title <chr>
…
